EESchema Schematic File Version 4
LIBS:magic-wand-cache
EELAYER 29 0
EELAYER END
$Descr A4 11693 8268
encoding utf-8
Sheet 1 1
Title ""
Date ""
Rev ""
Comp ""
Comment1 ""
Comment2 ""
Comment3 ""
Comment4 ""
$EndDescr
$Comp
L RF_Module:ESP32-WROOM-32 U1
U 1 1 5CEDD0A3
P 2875 3450
F 0 "U1" H 3000 4900 50  0000 C CNN
F 1 "ESP32-WROOM-32" H 3300 4800 50  0000 C CNN
F 2 "magic-wand:ESP32_micro" H 2875 1950 50  0001 C CNN
F 3 "https://www.espressif.com/sites/default/files/documentation/esp32-wroom-32_datasheet_en.pdf" H 2575 3500 50  0001 C CNN
	1    2875 3450
	1    0    0    -1  
$EndComp
$Comp
L Regulator_Linear:AP2112K-3.3 U3
U 1 1 5CEDD1BE
P 7500 3525
F 0 "U3" H 7500 3867 50  0000 C CNN
F 1 "AP2112K-3.3" H 7500 3776 50  0000 C CNN
F 2 "Package_TO_SOT_SMD:SOT-23-5" H 7500 3850 50  0001 C CNN
F 3 "https://www.diodes.com/assets/Datasheets/AP2112.pdf" H 7500 3625 50  0001 C CNN
	1    7500 3525
	1    0    0    -1  
$EndComp
$Comp
L Connector:USB_B_Micro J1
U 1 1 5CEDD29D
P 3925 1100
F 0 "J1" H 3980 1567 50  0000 C CNN
F 1 "USB_B_Micro" H 3980 1476 50  0000 C CNN
F 2 "Connector_USB:USB_Micro-B_Molex_47346-0001" H 4075 1050 50  0001 C CNN
F 3 "~" H 4075 1050 50  0001 C CNN
	1    3925 1100
	1    0    0    -1  
$EndComp
$Comp
L Battery_Management:MCP73811T-420I-OT U4
U 1 1 5CEDD604
P 7600 2250
F 0 "U4" H 7625 2575 50  0000 L CNN
F 1 "MCP73811T-420I-OT" H 7625 2500 50  0000 L CNN
F 2 "Package_TO_SOT_SMD:SOT-23-5" H 7650 2000 50  0001 L CNN
F 3 "http://ww1.microchip.com/downloads/en/DeviceDoc/22036b.pdf" H 7350 2500 50  0001 C CNN
	1    7600 2250
	1    0    0    -1  
$EndComp
$Comp
L Connector:Conn_01x04_Male J2
U 1 1 5CEDDA1C
P 5550 2950
F 0 "J2" H 5522 2830 50  0000 R CNN
F 1 "LEDS" H 5522 2921 50  0000 R CNN
F 2 "magic-wand:rod_connector" H 5550 2950 50  0001 C CNN
F 3 "~" H 5550 2950 50  0001 C CNN
	1    5550 2950
	-1   0    0    1   
$EndComp
Wire Wire Line
	4350 900  4275 900 
$Comp
L power:GND #PWR0101
U 1 1 5CEDDD28
P 3925 1675
F 0 "#PWR0101" H 3925 1425 50  0001 C CNN
F 1 "GND" H 3930 1502 50  0000 C CNN
F 2 "" H 3925 1675 50  0001 C CNN
F 3 "" H 3925 1675 50  0001 C CNN
	1    3925 1675
	1    0    0    -1  
$EndComp
Wire Wire Line
	3925 1675 3925 1575
Wire Wire Line
	3925 1575 3825 1575
Wire Wire Line
	3825 1575 3825 1500
Connection ~ 3925 1575
Wire Wire Line
	3925 1575 3925 1500
Wire Wire Line
	6675 3425 6800 3425
Wire Wire Line
	7025 3425 7025 3525
Wire Wire Line
	7025 3525 7200 3525
Connection ~ 7025 3425
Wire Wire Line
	7025 3425 7200 3425
$Comp
L Device:C C2
U 1 1 5CEDE01F
P 6800 3850
F 0 "C2" H 6915 3896 50  0000 L CNN
F 1 "1u" H 6915 3805 50  0000 L CNN
F 2 "Capacitor_SMD:C_0603_1608Metric_Pad1.05x0.95mm_HandSolder" H 6838 3700 50  0001 C CNN
F 3 "~" H 6800 3850 50  0001 C CNN
	1    6800 3850
	1    0    0    -1  
$EndComp
Wire Wire Line
	6800 3700 6800 3425
Connection ~ 6800 3425
Wire Wire Line
	6800 3425 7025 3425
$Comp
L power:GND #PWR0102
U 1 1 5CEDE0C8
P 7500 4125
F 0 "#PWR0102" H 7500 3875 50  0001 C CNN
F 1 "GND" H 7505 3952 50  0000 C CNN
F 2 "" H 7500 4125 50  0001 C CNN
F 3 "" H 7500 4125 50  0001 C CNN
	1    7500 4125
	1    0    0    -1  
$EndComp
Wire Wire Line
	6800 4000 6800 4050
Wire Wire Line
	6800 4050 7500 4050
Wire Wire Line
	7500 3825 7500 3925
Connection ~ 7500 4050
Wire Wire Line
	7500 4050 7500 4125
$Comp
L Device:C C4
U 1 1 5CEDE21E
P 8025 3775
F 0 "C4" H 8140 3821 50  0000 L CNN
F 1 "1u" H 8140 3730 50  0000 L CNN
F 2 "Capacitor_SMD:C_0603_1608Metric_Pad1.05x0.95mm_HandSolder" H 8063 3625 50  0001 C CNN
F 3 "~" H 8025 3775 50  0001 C CNN
	1    8025 3775
	1    0    0    -1  
$EndComp
Wire Wire Line
	7800 3425 8025 3425
Wire Wire Line
	8025 3425 8025 3625
Wire Wire Line
	8025 3925 7500 3925
Connection ~ 7500 3925
Wire Wire Line
	7500 3925 7500 4050
$Comp
L power:+3V3 #PWR0103
U 1 1 5CEDE47A
P 8300 3425
F 0 "#PWR0103" H 8300 3275 50  0001 C CNN
F 1 "+3V3" V 8315 3553 50  0000 L CNN
F 2 "" H 8300 3425 50  0001 C CNN
F 3 "" H 8300 3425 50  0001 C CNN
	1    8300 3425
	0    1    1    0   
$EndComp
Connection ~ 8025 3425
Wire Wire Line
	8025 3425 8300 3425
$Comp
L power:+3V3 #PWR0104
U 1 1 5CEDEA81
P 2875 1650
F 0 "#PWR0104" H 2875 1500 50  0001 C CNN
F 1 "+3V3" H 2890 1823 50  0000 C CNN
F 2 "" H 2875 1650 50  0001 C CNN
F 3 "" H 2875 1650 50  0001 C CNN
	1    2875 1650
	1    0    0    -1  
$EndComp
$Comp
L Device:R R1
U 1 1 5CEDECF9
P 2100 1950
F 0 "R1" H 2170 1996 50  0000 L CNN
F 1 "R" H 2170 1905 50  0000 L CNN
F 2 "Resistor_SMD:R_0603_1608Metric_Pad1.05x0.95mm_HandSolder" V 2030 1950 50  0001 C CNN
F 3 "~" H 2100 1950 50  0001 C CNN
	1    2100 1950
	1    0    0    -1  
$EndComp
Wire Wire Line
	2100 2100 2100 2250
Wire Wire Line
	2100 2250 2275 2250
Wire Wire Line
	2875 1650 2875 1725
Wire Wire Line
	2875 1725 2100 1725
Wire Wire Line
	2100 1725 2100 1800
Connection ~ 2875 1725
Wire Wire Line
	2875 1725 2875 2050
$Comp
L Device:C C1
U 1 1 5CEDF67F
P 1775 1900
F 0 "C1" H 1890 1946 50  0000 L CNN
F 1 "100n" H 1890 1855 50  0000 L CNN
F 2 "Capacitor_SMD:C_0603_1608Metric_Pad1.05x0.95mm_HandSolder" H 1813 1750 50  0001 C CNN
F 3 "~" H 1775 1900 50  0001 C CNN
	1    1775 1900
	1    0    0    -1  
$EndComp
Wire Wire Line
	1775 1750 1775 1725
Wire Wire Line
	1775 1725 2100 1725
Connection ~ 2100 1725
$Comp
L power:GND #PWR0105
U 1 1 5CEDFA58
P 2875 5025
F 0 "#PWR0105" H 2875 4775 50  0001 C CNN
F 1 "GND" H 2880 4852 50  0000 C CNN
F 2 "" H 2875 5025 50  0001 C CNN
F 3 "" H 2875 5025 50  0001 C CNN
	1    2875 5025
	1    0    0    -1  
$EndComp
Wire Wire Line
	2875 5025 2875 4850
$Comp
L power:GND #PWR0106
U 1 1 5CEE01EB
P 1775 2175
F 0 "#PWR0106" H 1775 1925 50  0001 C CNN
F 1 "GND" H 1780 2002 50  0000 C CNN
F 2 "" H 1775 2175 50  0001 C CNN
F 3 "" H 1775 2175 50  0001 C CNN
	1    1775 2175
	1    0    0    -1  
$EndComp
Wire Wire Line
	1775 2175 1775 2050
$Comp
L power:GND #PWR0107
U 1 1 5CEE09E0
P 4950 5600
F 0 "#PWR0107" H 4950 5350 50  0001 C CNN
F 1 "GND" H 4955 5427 50  0000 C CNN
F 2 "" H 4950 5600 50  0001 C CNN
F 3 "" H 4950 5600 50  0001 C CNN
	1    4950 5600
	1    0    0    -1  
$EndComp
Wire Wire Line
	4950 5600 4950 5500
Connection ~ 4950 5500
Wire Wire Line
	4950 5500 4950 5400
$Comp
L power:GND #PWR0108
U 1 1 5CEE2455
P 5225 3150
F 0 "#PWR0108" H 5225 2900 50  0001 C CNN
F 1 "GND" H 5230 2977 50  0000 C CNN
F 2 "" H 5225 3150 50  0001 C CNN
F 3 "" H 5225 3150 50  0001 C CNN
	1    5225 3150
	1    0    0    -1  
$EndComp
Wire Wire Line
	5225 3150 5225 3050
Wire Wire Line
	5225 3050 5350 3050
Wire Wire Line
	4975 2750 5350 2750
Wire Wire Line
	4400 2750 4575 2750
$Comp
L power:+3V3 #PWR0109
U 1 1 5CEE4E05
P 4950 3975
F 0 "#PWR0109" H 4950 3825 50  0001 C CNN
F 1 "+3V3" H 4965 4148 50  0000 C CNN
F 2 "" H 4950 3975 50  0001 C CNN
F 3 "" H 4950 3975 50  0001 C CNN
	1    4950 3975
	1    0    0    -1  
$EndComp
Wire Wire Line
	4950 3975 4950 4075
Wire Wire Line
	4950 4075 4850 4075
Wire Wire Line
	4850 4075 4850 4200
Connection ~ 4950 4075
Wire Wire Line
	4950 4075 4950 4200
Wire Wire Line
	7600 1775 7600 1950
Wire Wire Line
	7100 1775 7100 2150
Wire Wire Line
	7100 2150 7200 2150
Connection ~ 7100 1775
Wire Wire Line
	7100 1775 7600 1775
$Comp
L Connector:Conn_01x02_Male J3
U 1 1 5CEE7C62
P 9175 2250
F 0 "J3" H 9148 2130 50  0000 R CNN
F 1 "Conn_01x02_Male" H 9148 2221 50  0000 R CNN
F 2 "Connector_JST:JST_PH_S2B-PH-K_1x02_P2.00mm_Horizontal" H 9175 2250 50  0001 C CNN
F 3 "~" H 9175 2250 50  0001 C CNN
	1    9175 2250
	-1   0    0    1   
$EndComp
$Comp
L power:GND #PWR0110
U 1 1 5CEE7E5E
P 7600 2725
F 0 "#PWR0110" H 7600 2475 50  0001 C CNN
F 1 "GND" H 7605 2552 50  0000 C CNN
F 2 "" H 7600 2725 50  0001 C CNN
F 3 "" H 7600 2725 50  0001 C CNN
	1    7600 2725
	1    0    0    -1  
$EndComp
Wire Wire Line
	7600 2725 7600 2550
Wire Wire Line
	8975 2150 8525 2150
$Comp
L power:GND #PWR0111
U 1 1 5CEE94DA
P 8825 2725
F 0 "#PWR0111" H 8825 2475 50  0001 C CNN
F 1 "GND" H 8830 2552 50  0000 C CNN
F 2 "" H 8825 2725 50  0001 C CNN
F 3 "" H 8825 2725 50  0001 C CNN
	1    8825 2725
	1    0    0    -1  
$EndComp
Wire Wire Line
	8825 2250 8975 2250
Wire Wire Line
	4050 2375 4775 2375
Wire Wire Line
	4775 2375 4775 2450
Wire Wire Line
	7100 2150 7100 2350
Wire Wire Line
	7100 2350 7200 2350
Connection ~ 7100 2150
Wire Wire Line
	6650 1775 6850 1775
Connection ~ 6850 1775
Wire Wire Line
	6850 1775 7100 1775
$Comp
L power:GND #PWR0112
U 1 1 5CEF1F4A
P 6850 2225
F 0 "#PWR0112" H 6850 1975 50  0001 C CNN
F 1 "GND" H 6855 2052 50  0000 C CNN
F 2 "" H 6850 2225 50  0001 C CNN
F 3 "" H 6850 2225 50  0001 C CNN
	1    6850 2225
	1    0    0    -1  
$EndComp
Wire Wire Line
	6850 2225 6850 2075
Connection ~ 8525 2150
Wire Wire Line
	8525 2150 8000 2150
Wire Wire Line
	8825 2250 8825 2600
Wire Wire Line
	8525 2225 8525 2150
Wire Wire Line
	8525 2525 8525 2600
Wire Wire Line
	8525 2600 8825 2600
Connection ~ 8825 2600
Wire Wire Line
	8825 2600 8825 2725
Wire Wire Line
	5675 3550 5675 3875
$Comp
L Transistor_FET:BSS138 Q1
U 1 1 5CEC9F4B
P 4775 2650
F 0 "Q1" V 5025 2650 50  0000 C CNN
F 1 "BSS138" V 5116 2650 50  0000 C CNN
F 2 "Package_TO_SOT_SMD:SOT-23" H 4975 2575 50  0001 L CIN
F 3 "https://www.fairchildsemi.com/datasheets/BS/BSS138.pdf" H 4775 2650 50  0001 L CNN
	1    4775 2650
	0    1    1    0   
$EndComp
Text GLabel 3650 4250 2    50   Input ~ 0
IO32
Wire Wire Line
	3475 4250 3650 4250
Text GLabel 5200 2950 0    50   Input ~ 0
IO32
Wire Wire Line
	5200 2950 5350 2950
Text GLabel 3650 3650 2    50   Input ~ 0
IO21
Text GLabel 3650 3750 2    50   Input ~ 0
IO22
Text GLabel 3650 3850 2    50   Input ~ 0
IO23
Text GLabel 3650 3950 2    50   Input ~ 0
IO25
Text GLabel 4075 4900 0    50   Input ~ 0
IO21
Text GLabel 4075 4500 0    50   Input ~ 0
IO22
Text GLabel 4075 5000 0    50   Input ~ 0
IO23
Text GLabel 4075 5100 0    50   Input ~ 0
IO25
Wire Wire Line
	4075 5100 4250 5100
Wire Wire Line
	4250 4900 4075 4900
Wire Wire Line
	4075 4500 4250 4500
Wire Wire Line
	4250 5000 4075 5000
Wire Wire Line
	3475 3650 3650 3650
Wire Wire Line
	3650 3750 3475 3750
Wire Wire Line
	3475 3850 3650 3850
Wire Wire Line
	3650 3950 3475 3950
$Comp
L Connector:Conn_01x06_Male J4
U 1 1 5CEF2AA0
P 5475 1400
F 0 "J4" H 5675 1650 50  0000 C CNN
F 1 "CONN_PROG" V 5425 1400 50  0000 C CNN
F 2 "magic-wand:SMD_2.54_CONN_01x06" H 5475 1400 50  0001 C CNN
F 3 "~" H 5475 1400 50  0001 C CNN
	1    5475 1400
	1    0    0    -1  
$EndComp
Text GLabel 5825 1300 2    50   Input ~ 0
RX
Text GLabel 5825 1200 2    50   Input ~ 0
TX
Text GLabel 5825 1400 2    50   Input ~ 0
EN
Text GLabel 5825 1500 2    50   Input ~ 0
IO0
$Comp
L power:+3V3 #PWR0113
U 1 1 5CEF2E08
P 5825 1700
F 0 "#PWR0113" H 5825 1550 50  0001 C CNN
F 1 "+3V3" V 5840 1828 50  0000 L CNN
F 2 "" H 5825 1700 50  0001 C CNN
F 3 "" H 5825 1700 50  0001 C CNN
	1    5825 1700
	0    1    1    0   
$EndComp
Wire Wire Line
	5675 1200 5825 1200
Wire Wire Line
	5675 1300 5825 1300
Wire Wire Line
	5825 1400 5675 1400
Wire Wire Line
	5675 1500 5825 1500
Wire Wire Line
	5825 1600 5675 1600
Wire Wire Line
	5675 1700 5825 1700
$Comp
L power:GND #PWR0114
U 1 1 5CF050AC
P 5825 1600
F 0 "#PWR0114" H 5825 1350 50  0001 C CNN
F 1 "GND" V 5825 1375 50  0000 C CNN
F 2 "" H 5825 1600 50  0001 C CNN
F 3 "" H 5825 1600 50  0001 C CNN
	1    5825 1600
	0    -1   -1   0   
$EndComp
Text GLabel 3575 2550 2    50   Input ~ 0
RX
Text GLabel 3575 2350 2    50   Input ~ 0
TX
Wire Wire Line
	3575 2550 3475 2550
Wire Wire Line
	3475 2350 3575 2350
Text GLabel 2025 2250 0    50   Input ~ 0
EN
Wire Wire Line
	2025 2250 2100 2250
Connection ~ 2100 2250
Text GLabel 3575 2250 2    50   Input ~ 0
IO0
Wire Wire Line
	3575 2250 3475 2250
Text GLabel 6250 5000 0    50   Input ~ 0
IO21
Text GLabel 6250 5100 0    50   Input ~ 0
IO22
Text GLabel 6250 5200 0    50   Input ~ 0
IO23
Text GLabel 6250 4900 0    50   Input ~ 0
IO25
Wire Wire Line
	6250 4900 6425 4900
Wire Wire Line
	6425 5000 6250 5000
Wire Wire Line
	6250 5100 6425 5100
Wire Wire Line
	6425 5200 6250 5200
Wire Wire Line
	5750 3875 5750 3450
Wire Wire Line
	4275 825  4275 900 
Connection ~ 4275 900 
Wire Wire Line
	4275 900  4225 900 
Wire Wire Line
	4025 2850 5350 2850
Text GLabel 6250 5300 0    50   Input ~ 0
IO32
Wire Wire Line
	6250 5300 6425 5300
Connection ~ 4775 2375
$Comp
L Sensor_Motion:LSM6DS3 U2
U 1 1 5CF9B3B2
P 4850 4800
F 0 "U2" H 5494 4846 50  0000 L CNN
F 1 "LSM6DS3" H 5494 4755 50  0000 L CNN
F 2 "Package_LGA:LGA-14_3x2.5mm_P0.5mm_LayoutBorder3x4y" H 4450 4100 50  0001 L CNN
F 3 "www.st.com/resource/en/datasheet/lsm6ds3.pdf" H 4950 4150 50  0001 C CNN
	1    4850 4800
	1    0    0    -1  
$EndComp
Wire Wire Line
	4850 5500 4950 5500
Wire Wire Line
	4850 5400 4850 5500
Wire Wire Line
	5675 3875 5675 4500
Wire Wire Line
	5675 4500 5450 4500
Connection ~ 5675 3875
Wire Wire Line
	5750 3875 5750 4600
Wire Wire Line
	5750 4600 5450 4600
Connection ~ 5750 3875
Text GLabel 4350 900  2    50   Input ~ 0
VUSB
$Comp
L Connector:TestPoint TP10
U 1 1 5CF06703
P 6425 5300
F 0 "TP10" V 6425 5500 50  0000 L CNN
F 1 "IO32" V 6425 5725 50  0000 L CNN
F 2 "TestPoint:TestPoint_Pad_D1.5mm" H 6625 5300 50  0001 C CNN
F 3 "~" H 6625 5300 50  0001 C CNN
	1    6425 5300
	0    1    1    0   
$EndComp
$Comp
L Connector:TestPoint TP9
U 1 1 5CEF7151
P 6425 5200
F 0 "TP9" V 6425 5400 50  0000 L CNN
F 1 "IO23" V 6425 5625 50  0000 L CNN
F 2 "TestPoint:TestPoint_Pad_D1.5mm" H 6625 5200 50  0001 C CNN
F 3 "~" H 6625 5200 50  0001 C CNN
	1    6425 5200
	0    1    1    0   
$EndComp
$Comp
L Connector:TestPoint TP8
U 1 1 5CEF7115
P 6425 5100
F 0 "TP8" V 6425 5300 50  0000 L CNN
F 1 "IO22" V 6425 5525 50  0000 L CNN
F 2 "TestPoint:TestPoint_Pad_D1.5mm" H 6625 5100 50  0001 C CNN
F 3 "~" H 6625 5100 50  0001 C CNN
	1    6425 5100
	0    1    1    0   
$EndComp
$Comp
L Connector:TestPoint TP7
U 1 1 5CEF70D7
P 6425 5000
F 0 "TP7" V 6425 5200 50  0000 L CNN
F 1 "IO21" V 6425 5425 50  0000 L CNN
F 2 "TestPoint:TestPoint_Pad_D1.5mm" H 6625 5000 50  0001 C CNN
F 3 "~" H 6625 5000 50  0001 C CNN
	1    6425 5000
	0    1    1    0   
$EndComp
$Comp
L Connector:TestPoint TP6
U 1 1 5CEF6FB4
P 6425 4900
F 0 "TP6" V 6425 5100 50  0000 L CNN
F 1 "IO25" V 6425 5325 50  0000 L CNN
F 2 "TestPoint:TestPoint_Pad_D1.5mm" H 6625 4900 50  0001 C CNN
F 3 "~" H 6625 4900 50  0001 C CNN
	1    6425 4900
	0    1    1    0   
$EndComp
$Comp
L Connector:TestPoint TP5
U 1 1 5CEFFC0C
P 5750 3875
F 0 "TP5" V 5704 4063 50  0000 L CNN
F 1 "IO14" V 5795 4063 50  0000 L CNN
F 2 "TestPoint:TestPoint_Pad_D1.5mm" H 5950 3875 50  0001 C CNN
F 3 "~" H 5950 3875 50  0001 C CNN
	1    5750 3875
	0    1    1    0   
$EndComp
$Comp
L Connector:TestPoint TP4
U 1 1 5CF02D8C
P 5675 3875
F 0 "TP4" V 5700 4125 50  0000 C CNN
F 1 "IO15" V 5600 4100 50  0000 C CNN
F 2 "TestPoint:TestPoint_Pad_D1.5mm" H 5875 3875 50  0001 C CNN
F 3 "~" H 5875 3875 50  0001 C CNN
	1    5675 3875
	0    -1   -1   0   
$EndComp
$Comp
L Connector:TestPoint TP1
U 1 1 5CF06566
P 4025 2850
F 0 "TP1" H 4225 2975 50  0000 R CNN
F 1 "IO13" H 3967 2968 50  0000 R CNN
F 2 "TestPoint:TestPoint_Pad_D1.5mm" H 4225 2850 50  0001 C CNN
F 3 "~" H 4225 2850 50  0001 C CNN
	1    4025 2850
	-1   0    0    1   
$EndComp
$Comp
L Connector:TestPoint TP2
U 1 1 5CF02E42
P 4275 825
F 0 "TP2" H 4333 945 50  0000 L CNN
F 1 "VUSB" H 4333 854 50  0000 L CNN
F 2 "TestPoint:TestPoint_Pad_D1.5mm" H 4475 825 50  0001 C CNN
F 3 "~" H 4475 825 50  0001 C CNN
	1    4275 825 
	1    0    0    -1  
$EndComp
$Comp
L Connector:TestPoint TP12
U 1 1 5CF0B1D8
P 8525 1650
F 0 "TP12" H 8583 1770 50  0000 L CNN
F 1 "VBAT" H 8583 1679 50  0000 L CNN
F 2 "TestPoint:TestPoint_Pad_D1.5mm" H 8725 1650 50  0001 C CNN
F 3 "~" H 8725 1650 50  0001 C CNN
	1    8525 1650
	1    0    0    -1  
$EndComp
$Comp
L Connector:TestPoint TP3
U 1 1 5CF0B5E0
P 4775 2375
F 0 "TP3" V 4729 2563 50  0000 L CNN
F 1 "IO4" V 4820 2563 50  0000 L CNN
F 2 "TestPoint:TestPoint_Pad_D1.5mm" H 4975 2375 50  0001 C CNN
F 3 "~" H 4975 2375 50  0001 C CNN
	1    4775 2375
	0    1    1    0   
$EndComp
$Comp
L Connector:TestPoint TP11
U 1 1 5CF0ADE5
P 8025 3425
F 0 "TP11" H 8083 3545 50  0000 L CNN
F 1 "+3V3" H 8325 3550 50  0000 L CNN
F 2 "TestPoint:TestPoint_Pad_D1.5mm" H 8225 3425 50  0001 C CNN
F 3 "~" H 8225 3425 50  0001 C CNN
	1    8025 3425
	1    0    0    -1  
$EndComp
Text GLabel 6650 1775 0    50   Input ~ 0
VUSB
$Comp
L Device:C C7
U 1 1 5D0535B6
P 4300 5925
F 0 "C7" H 4415 5971 50  0000 L CNN
F 1 "100n" H 4415 5880 50  0000 L CNN
F 2 "Capacitor_SMD:C_0603_1608Metric_Pad1.05x0.95mm_HandSolder" H 4338 5775 50  0001 C CNN
F 3 "~" H 4300 5925 50  0001 C CNN
	1    4300 5925
	1    0    0    -1  
$EndComp
$Comp
L power:GND #PWR0115
U 1 1 5D0535C0
P 4300 6200
F 0 "#PWR0115" H 4300 5950 50  0001 C CNN
F 1 "GND" H 4305 6027 50  0000 C CNN
F 2 "" H 4300 6200 50  0001 C CNN
F 3 "" H 4300 6200 50  0001 C CNN
	1    4300 6200
	1    0    0    -1  
$EndComp
Wire Wire Line
	4300 6200 4300 6075
$Comp
L power:+3V3 #PWR0116
U 1 1 5D05F89D
P 4300 5525
F 0 "#PWR0116" H 4300 5375 50  0001 C CNN
F 1 "+3V3" H 4315 5698 50  0000 C CNN
F 2 "" H 4300 5525 50  0001 C CNN
F 3 "" H 4300 5525 50  0001 C CNN
	1    4300 5525
	1    0    0    -1  
$EndComp
$Comp
L Device:C C6
U 1 1 5D066317
P 4200 3900
F 0 "C6" H 4315 3946 50  0000 L CNN
F 1 "100n" H 4315 3855 50  0000 L CNN
F 2 "Capacitor_SMD:C_0603_1608Metric_Pad1.05x0.95mm_HandSolder" H 4238 3750 50  0001 C CNN
F 3 "~" H 4200 3900 50  0001 C CNN
	1    4200 3900
	1    0    0    -1  
$EndComp
$Comp
L power:GND #PWR0117
U 1 1 5D066321
P 4200 4175
F 0 "#PWR0117" H 4200 3925 50  0001 C CNN
F 1 "GND" H 4205 4002 50  0000 C CNN
F 2 "" H 4200 4175 50  0001 C CNN
F 3 "" H 4200 4175 50  0001 C CNN
	1    4200 4175
	1    0    0    -1  
$EndComp
Wire Wire Line
	4200 4175 4200 4050
Wire Wire Line
	4300 5525 4300 5775
$Comp
L Device:C C8
U 1 1 5D07F0DF
P 975 2000
F 0 "C8" H 1090 2046 50  0000 L CNN
F 1 "100n" H 1090 1955 50  0000 L CNN
F 2 "Capacitor_SMD:C_0603_1608Metric_Pad1.05x0.95mm_HandSolder" H 1013 1850 50  0001 C CNN
F 3 "~" H 975 2000 50  0001 C CNN
	1    975  2000
	1    0    0    -1  
$EndComp
$Comp
L power:GND #PWR0121
U 1 1 5D07F0E9
P 975 2275
F 0 "#PWR0121" H 975 2025 50  0001 C CNN
F 1 "GND" H 980 2102 50  0000 C CNN
F 2 "" H 975 2275 50  0001 C CNN
F 3 "" H 975 2275 50  0001 C CNN
	1    975  2275
	1    0    0    -1  
$EndComp
Wire Wire Line
	975  2275 975  2150
$Comp
L power:+3V3 #PWR0122
U 1 1 5D07F0F4
P 975 1600
F 0 "#PWR0122" H 975 1450 50  0001 C CNN
F 1 "+3V3" H 990 1773 50  0000 C CNN
F 2 "" H 975 1600 50  0001 C CNN
F 3 "" H 975 1600 50  0001 C CNN
	1    975  1600
	1    0    0    -1  
$EndComp
Wire Wire Line
	975  1600 975  1850
Wire Wire Line
	4050 2375 4050 2650
Wire Wire Line
	4050 2650 3475 2650
Wire Wire Line
	4025 2850 3750 2850
Wire Wire Line
	3750 2850 3750 2950
Wire Wire Line
	3750 2950 3475 2950
Connection ~ 4025 2850
Wire Wire Line
	5675 3550 3725 3550
Wire Wire Line
	3725 3550 3725 3150
Wire Wire Line
	3725 3150 3475 3150
Wire Wire Line
	5750 3450 3775 3450
Wire Wire Line
	3775 3450 3775 3050
Wire Wire Line
	3775 3050 3475 3050
Wire Wire Line
	4200 3750 4200 3700
Wire Wire Line
	4200 3700 4850 3700
Wire Wire Line
	4850 3700 4850 4075
Connection ~ 4850 4075
$Comp
L Device:C C5
U 1 1 5CEF30FE
P 8525 2375
F 0 "C5" H 8640 2421 50  0000 L CNN
F 1 "1u" H 8640 2330 50  0000 L CNN
F 2 "Capacitor_SMD:C_0603_1608Metric_Pad1.05x0.95mm_HandSolder" H 8563 2225 50  0001 C CNN
F 3 "~" H 8525 2375 50  0001 C CNN
	1    8525 2375
	1    0    0    -1  
$EndComp
$Comp
L Device:C C3
U 1 1 5CEF1E77
P 6850 1925
F 0 "C3" H 6965 1971 50  0000 L CNN
F 1 "1u" H 6965 1880 50  0000 L CNN
F 2 "Capacitor_SMD:C_0603_1608Metric_Pad1.05x0.95mm_HandSolder" H 6888 1775 50  0001 C CNN
F 3 "~" H 6850 1925 50  0001 C CNN
	1    6850 1925
	1    0    0    -1  
$EndComp
$Comp
L Device:D D1
U 1 1 5D0D654F
P 9275 5675
F 0 "D1" H 9275 5459 50  0000 C CNN
F 1 "D" H 9275 5550 50  0000 C CNN
F 2 "Diode_SMD:D_0603_1608Metric_Pad1.05x0.95mm_HandSolder" H 9275 5675 50  0001 C CNN
F 3 "~" H 9275 5675 50  0001 C CNN
	1    9275 5675
	-1   0    0    1   
$EndComp
$Comp
L Device:R R2
U 1 1 5D0D8605
P 8950 5950
F 0 "R2" H 9020 5996 50  0000 L CNN
F 1 "R" H 9020 5905 50  0000 L CNN
F 2 "Resistor_SMD:R_0603_1608Metric_Pad1.05x0.95mm_HandSolder" V 8880 5950 50  0001 C CNN
F 3 "~" H 8950 5950 50  0001 C CNN
	1    8950 5950
	1    0    0    -1  
$EndComp
$Comp
L power:GND #PWR0118
U 1 1 5D0D8BF0
P 8950 6225
F 0 "#PWR0118" H 8950 5975 50  0001 C CNN
F 1 "GND" H 8955 6052 50  0000 C CNN
F 2 "" H 8950 6225 50  0001 C CNN
F 3 "" H 8950 6225 50  0001 C CNN
	1    8950 6225
	1    0    0    -1  
$EndComp
Wire Wire Line
	8950 6225 8950 6100
Wire Wire Line
	8950 5800 8950 5675
Wire Wire Line
	8950 5675 9125 5675
Wire Wire Line
	9575 5675 9425 5675
Wire Wire Line
	9275 5100 8950 5100
Wire Wire Line
	8950 5100 8950 5675
Connection ~ 8950 5675
Text GLabel 8775 5100 0    50   Input ~ 0
VUSB
Wire Wire Line
	8525 2150 8525 1775
Text GLabel 8700 1775 2    50   Input ~ 0
VBAT
Wire Wire Line
	8700 1775 8525 1775
Connection ~ 8525 1775
Wire Wire Line
	8525 1775 8525 1650
Text GLabel 8775 4600 0    50   Input ~ 0
VBAT
Wire Wire Line
	8775 4600 9575 4600
Wire Wire Line
	9575 4600 9575 4900
Wire Wire Line
	8775 5100 8950 5100
Connection ~ 8950 5100
Text GLabel 9850 5675 2    50   Input ~ 0
VIN
Wire Wire Line
	9850 5675 9575 5675
Connection ~ 9575 5675
Text GLabel 6675 3425 0    50   Input ~ 0
VIN
Text GLabel 4400 2750 0    50   Input ~ 0
VIN
$Comp
L Transistor_FET:2N7002 Q2
U 1 1 5D13DE41
P 9475 5100
F 0 "Q2" H 9681 5146 50  0000 L CNN
F 1 "2N7002" H 9681 5055 50  0000 L CNN
F 2 "Package_TO_SOT_SMD:SOT-23" H 9675 5025 50  0001 L CIN
F 3 "https://www.fairchildsemi.com/datasheets/2N/2N7002.pdf" H 9475 5100 50  0001 L CNN
	1    9475 5100
	1    0    0    -1  
$EndComp
Wire Wire Line
	9575 5300 9575 5675
$EndSCHEMATC
