(module SMD_2.54_CONN_01x06 (layer F.Cu) (tedit 5CECA851)
  (fp_text reference REF** (at 0 5) (layer F.SilkS)
    (effects (font (size 1 1) (thickness 0.15)))
  )
  (fp_text value SMD_2.54_CONN_01x06 (at 0 -2.75) (layer F.Fab)
    (effects (font (size 1 1) (thickness 0.15)))
  )
  (pad 1 smd rect (at -6.35 0) (size 1.524 2) (layers F.Cu F.Paste F.Mask))
  (pad 2 smd rect (at -3.81 0) (size 1.524 2) (layers F.Cu F.Paste F.Mask))
  (pad 3 smd rect (at -1.27 0) (size 1.524 2) (layers F.Cu F.Paste F.Mask))
  (pad 4 smd rect (at 1.27 0) (size 1.524 2) (layers F.Cu F.Paste F.Mask))
  (pad 5 smd rect (at 3.81 0) (size 1.524 2) (layers F.Cu F.Paste F.Mask))
  (pad 6 smd rect (at 6.35 0) (size 1.524 2) (layers F.Cu F.Paste F.Mask))
)
